﻿{
  "dependencies": {
    "Microsoft.NETCore.UniversalWindowsPlatform": "5.0.0",
    "TK.CustomMap": "1.5.1",
    "Xam.Plugin.Connectivity": "2.3.0",
    "Xam.Plugin.Geolocator": "3.0.4",
    "Xam.Plugin.Media": "2.6.2",
    "Xam.Plugin.PushNotification": "1.2.4",
    "Xamarin.Forms": "2.3.4.247",
    "Xamarin.Forms.Maps": "2.3.4.247",
    "XLabs.Forms": "2.2.0-pre05",
    "ZXing.Net.Mobile": "2.2.9"
  },
  "frameworks": {
    "uap10.0": {}
  },
  "runtimes": {
    "win10-arm": {},
    "win10-arm-aot": {},
    "win10-x86": {},
    "win10-x86-aot": {},
    "win10-x64": {},
    "win10-x64-aot": {}
  }
}